digraph model_graph {
  // Dotfile by Django-Extensions graph_models
  // Created: 2018-05-17 08:47
  // Cli Options: main

  fontname = "Helvetica"
  fontsize = 8
  splines  = true

  node [
    fontname = "Helvetica"
    fontsize = 8
    shape = "plaintext"
  ]

  edge [
    fontname = "Helvetica"
    fontsize = 8
  ]

  // Labels


  main_models_Protocolo [label=<
    <TABLE BGCOLOR="palegoldenrod" BORDER="0" CELLBORDER="0" CELLSPACING="0">
    <TR><TD COLSPAN="2" CELLPADDING="4" ALIGN="CENTER" BGCOLOR="olivedrab4">
    <FONT FACE="Helvetica Bold" COLOR="white">
    Protocolo
    </FONT></TD></TR>
  
    <TR><TD ALIGN="LEFT" BORDER="0">
    <FONT FACE="Helvetica Bold">id</FONT>
    </TD><TD ALIGN="LEFT">
    <FONT FACE="Helvetica Bold">AutoField</FONT>
    </TD></TR>
  
    <TR><TD ALIGN="LEFT" BORDER="0">
    <FONT FACE="Helvetica ">codigo</FONT>
    </TD><TD ALIGN="LEFT">
    <FONT FACE="Helvetica ">CharField</FONT>
    </TD></TR>
  
    <TR><TD ALIGN="LEFT" BORDER="0">
    <FONT FACE="Helvetica ">criterio</FONT>
    </TD><TD ALIGN="LEFT">
    <FONT FACE="Helvetica ">CharField</FONT>
    </TD></TR>
  
    <TR><TD ALIGN="LEFT" BORDER="0">
    <FONT FACE="Helvetica ">descripcion</FONT>
    </TD><TD ALIGN="LEFT">
    <FONT FACE="Helvetica ">TextField</FONT>
    </TD></TR>
  
    <TR><TD ALIGN="LEFT" BORDER="0">
    <FONT FACE="Helvetica ">nivel</FONT>
    </TD><TD ALIGN="LEFT">
    <FONT FACE="Helvetica ">CharField</FONT>
    </TD></TR>
  
    <TR><TD ALIGN="LEFT" BORDER="0">
    <FONT FACE="Helvetica ">principio</FONT>
    </TD><TD ALIGN="LEFT">
    <FONT FACE="Helvetica ">CharField</FONT>
    </TD></TR>
  
    </TABLE>
    >]

  main_models_Analizador [label=<
    <TABLE BGCOLOR="palegoldenrod" BORDER="0" CELLBORDER="0" CELLSPACING="0">
    <TR><TD COLSPAN="2" CELLPADDING="4" ALIGN="CENTER" BGCOLOR="olivedrab4">
    <FONT FACE="Helvetica Bold" COLOR="white">
    Analizador
    </FONT></TD></TR>
  
    <TR><TD ALIGN="LEFT" BORDER="0">
    <FONT FACE="Helvetica Bold">id</FONT>
    </TD><TD ALIGN="LEFT">
    <FONT FACE="Helvetica Bold">AutoField</FONT>
    </TD></TR>
  
    <TR><TD ALIGN="LEFT" BORDER="0">
    <FONT COLOR="#7B7B7B" FACE="Helvetica ">activo</FONT>
    </TD><TD ALIGN="LEFT">
    <FONT COLOR="#7B7B7B" FACE="Helvetica ">BooleanField</FONT>
    </TD></TR>
  
    <TR><TD ALIGN="LEFT" BORDER="0">
    <FONT COLOR="#7B7B7B" FACE="Helvetica ">api</FONT>
    </TD><TD ALIGN="LEFT">
    <FONT COLOR="#7B7B7B" FACE="Helvetica ">NullBooleanField</FONT>
    </TD></TR>
  
    <TR><TD ALIGN="LEFT" BORDER="0">
    <FONT FACE="Helvetica ">descripcion</FONT>
    </TD><TD ALIGN="LEFT">
    <FONT FACE="Helvetica ">CharField</FONT>
    </TD></TR>
  
    <TR><TD ALIGN="LEFT" BORDER="0">
    <FONT FACE="Helvetica ">nombre</FONT>
    </TD><TD ALIGN="LEFT">
    <FONT FACE="Helvetica ">CharField</FONT>
    </TD></TR>
  
    </TABLE>
    >]

  main_models_PaginaWeb [label=<
    <TABLE BGCOLOR="palegoldenrod" BORDER="0" CELLBORDER="0" CELLSPACING="0">
    <TR><TD COLSPAN="2" CELLPADDING="4" ALIGN="CENTER" BGCOLOR="olivedrab4">
    <FONT FACE="Helvetica Bold" COLOR="white">
    PaginaWeb
    </FONT></TD></TR>
  
    <TR><TD ALIGN="LEFT" BORDER="0">
    <FONT FACE="Helvetica Bold">id</FONT>
    </TD><TD ALIGN="LEFT">
    <FONT FACE="Helvetica Bold">AutoField</FONT>
    </TD></TR>
  
    <TR><TD ALIGN="LEFT" BORDER="0">
    <FONT FACE="Helvetica ">last_analysis</FONT>
    </TD><TD ALIGN="LEFT">
    <FONT FACE="Helvetica ">DateTimeField</FONT>
    </TD></TR>
  
    <TR><TD ALIGN="LEFT" BORDER="0">
    <FONT FACE="Helvetica ">url</FONT>
    </TD><TD ALIGN="LEFT">
    <FONT FACE="Helvetica ">CharField</FONT>
    </TD></TR>
  
    </TABLE>
    >]

  main_models_Analisis [label=<
    <TABLE BGCOLOR="palegoldenrod" BORDER="0" CELLBORDER="0" CELLSPACING="0">
    <TR><TD COLSPAN="2" CELLPADDING="4" ALIGN="CENTER" BGCOLOR="olivedrab4">
    <FONT FACE="Helvetica Bold" COLOR="white">
    Analisis
    </FONT></TD></TR>
  
    <TR><TD ALIGN="LEFT" BORDER="0">
    <FONT FACE="Helvetica Bold">id</FONT>
    </TD><TD ALIGN="LEFT">
    <FONT FACE="Helvetica Bold">AutoField</FONT>
    </TD></TR>
  
    <TR><TD ALIGN="LEFT" BORDER="0">
    <FONT FACE="Helvetica Bold">id_analizador</FONT>
    </TD><TD ALIGN="LEFT">
    <FONT FACE="Helvetica Bold">ForeignKey (id)</FONT>
    </TD></TR>
  
    <TR><TD ALIGN="LEFT" BORDER="0">
    <FONT FACE="Helvetica Bold">id_pag_web</FONT>
    </TD><TD ALIGN="LEFT">
    <FONT FACE="Helvetica Bold">ForeignKey (id)</FONT>
    </TD></TR>
  
    <TR><TD ALIGN="LEFT" BORDER="0">
    <FONT FACE="Helvetica Bold">id_protocolo</FONT>
    </TD><TD ALIGN="LEFT">
    <FONT FACE="Helvetica Bold">ForeignKey (id)</FONT>
    </TD></TR>
  
    <TR><TD ALIGN="LEFT" BORDER="0">
    <FONT FACE="Helvetica ">created_at</FONT>
    </TD><TD ALIGN="LEFT">
    <FONT FACE="Helvetica ">DateTimeField</FONT>
    </TD></TR>
  
    <TR><TD ALIGN="LEFT" BORDER="0">
    <FONT FACE="Helvetica ">linea</FONT>
    </TD><TD ALIGN="LEFT">
    <FONT FACE="Helvetica ">CharField</FONT>
    </TD></TR>
  
    <TR><TD ALIGN="LEFT" BORDER="0">
    <FONT FACE="Helvetica ">resultado</FONT>
    </TD><TD ALIGN="LEFT">
    <FONT FACE="Helvetica ">CharField</FONT>
    </TD></TR>
  
    </TABLE>
    >]




  // Relations

  main_models_Analisis -> main_models_Analizador
  [label="id_analizador (analizador)"] [arrowhead=none, arrowtail=dot, dir=both];

  main_models_Analisis -> main_models_PaginaWeb
  [label="id_pag_web (analisis)"] [arrowhead=none, arrowtail=dot, dir=both];

  main_models_Analisis -> main_models_Protocolo
  [label="id_protocolo (protocolo)"] [arrowhead=none, arrowtail=dot, dir=both];


}

